Lab 2 DS 202
…
choco %>% 
  group_by(choco$Bean_Origin) %>% 
  summarise(mean_rating = mean(Rating)) %>% 
  arrange(desc(mean_rating))

## # A tibble: 63 x 2
##    `choco$Bean_Origin` mean_rating
##    <fct>                     <dbl>
##  1 Tobago                     3.62
##  2 Sao Tome & Principe        3.5 
##  3 Solomon Islands            3.45
##  4 Congo                      3.32
##  5 Thailand                   3.3 
##  6 Cuba                       3.29
##  7 Guatemala                  3.27
##  8 Haiti                      3.27
##  9 Papua New Guinea           3.27
## 10 Madagascar                 3.26
## #  with 53 more rows
…
